^C:\USERS\TRAINING9\SOURCE\REPOS\PROJECT MINI-PROCESSOR\PROJECT MINI-PROCESSOR\DEBUG\MAIN.OBJ|C:\USERS\TRAINING9\SOURCE\REPOS\PROJECT MINI-PROCESSOR\PROJECT MINI-PROCESSOR\DEBUG\MEMORY.OBJ
C:\USERS\TRAINING9\SOURCE\REPOS\PROJECT MINI-PROCESSOR\DEBUG\PROJECT MINI-PROCESSOR.EXE
C:\USERS\TRAINING9\SOURCE\REPOS\PROJECT MINI-PROCESSOR\DEBUG\PROJECT MINI-PROCESSOR.ILK
C:\USERS\TRAINING9\SOURCE\REPOS\PROJECT MINI-PROCESSOR\DEBUG\PROJECT MINI-PROCESSOR.PDB
