CLK: 4 Message: -- IC sends ip to LS --   65520
CLK: 42 Message: -- LS recieved ip from IC --   65520
CLK: 42 Message: -- LS sends data to IC --    18446744069498478080
CLK: 45 Message: -- IC recieved data from LS --   18446744069498478080
CLK: 46 Message: -- DE recieved data from IC --   18446744069498478080
CLK: 46 Message: -- DE sends data to EX --   7680
CLK: 50 Message: -- EX recieved data from DE --   7680
CLK: 52 Message: -- IC sends ip to LS --   1280
CLK: 54 Message: -- LS recieved ip from IC --   1280
CLK: 54 Message: -- LS sends data to IC --    13675175939152
CLK: 58 Message: -- IC recieved data from LS --   13675175939152
CLK: 59 Message: -- DE recieved data from IC --   13675175939152
CLK: 59 Message: -- DE sends data to EX --   3152
CLK: 60 Message: -- EX recieved data from DE --   3152
CLK: 64 Message: -- IC sends ip to LS --   1284
CLK: 72 Message: -- LS recieved ip from IC --   1284
CLK: 72 Message: -- LS sends data to IC --    13675175939152
CLK: 72 Message: -- IC recieved data from LS --   13675175939152
CLK: 73 Message: -- DE recieved data from IC --   13675175939152
CLK: 73 Message: -- DE sends data to EX --   3184
CLK: 75 Message: -- EX recieved data from DE --   3184
CLK: 75 Message: -- IC sends ip to LS --   1286
CLK: 76 Message: -- IC sends NEW ip to LS --  16
CLK: 85 Message: -- LS recieved ip from IC --   1286
CLK: 85 Message: -- LS sends data to IC --    18446744073709501440
CLK: 87 Message: -- IC recieved data from LS --   18446744073709501440
CLK: 91 Message: -- LS recieved ip from IC --   1286
CLK: 91 Message: -- LS sends data to IC --    18446744073709501440
CLK: 94 Message: -- IC recieved data from LS --   18446744073709501440
CLK: 95 Message: -- DE recieved data from IC --   18446744073709501440
CLK: 95 Message: -- DE sends data to EX --   65535
CLK: 96 Message: -- EX recieved data from DE --   65535
CLK: 99 Message: -- IC sends ip to LS --   1288
CLK: 102 Message: -- LS recieved ip from IC --   1288
CLK: 102 Message: -- LS sends data to IC --    858787301426256
CLK: 102 Message: -- IC recieved data from LS --   858787301426256
CLK: 104 Message: -- DE recieved data from IC --   858787301426256
CLK: 104 Message: -- DE sends data to EX --   1104
CLK: 105 Message: -- EX recieved data from DE --   1104
CLK: 108 Message: -- IC sends ip to LS --   1292
CLK: 109 Message: -- LS recieved ip from IC --   1292
CLK: 109 Message: -- LS sends data to IC --    858787301426256
CLK: 111 Message: -- IC recieved data from LS --   858787301426256
CLK: 112 Message: -- DE recieved data from IC --   858787301426256
CLK: 112 Message: -- DE sends data to EX --   3344
CLK: 115 Message: -- EX recieved data from DE --   3344
CLK: 118 Message: -- IC sends ip to LS --   1296
CLK: 126 Message: -- LS recieved ip from IC --   1296
CLK: 126 Message: -- LS sends data to IC --    295562470231216
CLK: 129 Message: -- IC recieved data from LS --   295562470231216
CLK: 130 Message: -- DE recieved data from IC --   295562470231216
CLK: 130 Message: -- DE sends data to EX --   3248
CLK: 135 Message: -- EX recieved data from DE --   3248
CLK: 135 Message: -- IC sends ip to LS --   1300
CLK: 144 Message: -- LS recieved ip from IC --   1300
CLK: 144 Message: -- LS sends data to IC --    295562470231216
CLK: 144 Message: -- IC recieved data from LS --   295562470231216
CLK: 145 Message: -- DE recieved data from IC --   295562470231216
CLK: 145 Message: -- DE sends data to EX --   3280
CLK: 146 Message: -- EX recieved data from DE --   3280
CLK: 148 Message: -- IC sends ip to LS --   1304
CLK: 162 Message: -- LS recieved ip from IC --   1304
CLK: 162 Message: -- LS sends data to IC --    1193453901463947430
CLK: 165 Message: -- IC recieved data from LS --   1193453901463947430
CLK: 166 Message: -- DE recieved data from IC --   1193453901463947430
CLK: 167 Message: -- DE sends data to EX --   2214
CLK: 170 Message: -- EX recieved data from DE --   2214
CLK: 173 Message: -- IC sends ip to LS --   1306
CLK: 181 Message: -- LS recieved ip from IC --   1306
CLK: 181 Message: -- LS sends data to IC --    1193453901463947430
CLK: 183 Message: -- IC recieved data from LS --   1193453901463947430
CLK: 184 Message: -- DE recieved data from IC --   1193453901463947430
CLK: 184 Message: -- DE sends data to EX --   3216
CLK: 185 Message: -- EX recieved data from DE --   3216
CLK: 186 Message: -- LS recieved ip from IC --   1308
CLK: 186 Message: -- IC sends ip to LS --   1308
CLK: 187 Message: -- LS sends data to IC --    1193453901463947430
CLK: 187 Message: -- IC sends NEW ip to LS --  16
CLK: 187 Message: -- IC recieved MORE data from LS --   210765990
CLK: 192 Message: -- LS recieved ip from IC --   1308
CLK: 192 Message: -- IC recieved data from LS --   18446744073709501440
CLK: 192 Message: -- LS sends data to IC --    18446744073709501440
CLK: 193 Message: -- DE recieved data from IC --   18446744073709501440
CLK: 193 Message: -- DE sends data to EX --   65535
CLK: 195 Message: -- EX recieved data from DE --   65535
CLK: 196 Message: -- IC sends ip to LS --   1310
CLK: 198 Message: -- LS recieved ip from IC --   1310
CLK: 199 Message: -- LS sends data to IC --    1193453901463947430
CLK: 201 Message: -- IC recieved data from LS --   1193453901463947430
CLK: 202 Message: -- DE recieved data from IC --   1193453901463947430
CLK: 204 Message: -- IC sends NEW ip to LS --  1312
CLK: 204 Message: -- LS recieved ip from IC --   1310
CLK: 205 Message: -- LS sends data to IC --    4629700434197479434
CLK: 207 Message: -- IC recieved data from LS --   4629700434197479434
CLK: 208 Message: -- DE sends data to EX --   4240
CLK: 210 Message: -- EX recieved data from DE --   4240
CLK: 214 Message: -- IC sends ip to LS --   1314
CLK: 217 Message: -- LS recieved ip from IC --   1314
CLK: 217 Message: -- LS sends data to IC --    4629700434197479434
CLK: 219 Message: -- IC recieved data from LS --   4629700434197479434
CLK: 220 Message: -- DE recieved data from IC --   4629700434197479434
CLK: 220 Message: -- DE sends data to EX --   1232
CLK: 221 Message: -- EX recieved data from DE --   1232
CLK: 223 Message: -- IC sends ip to LS --   1318
CLK: 223 Message: -- LS recieved ip from IC --   1318
CLK: 223 Message: -- LS sends data to IC --    4629700434197479434
CLK: 223 Message: -- IC recieved data from LS --   4629700434197479434
CLK: 224 Message: -- DE recieved data from IC --   4629700434197479434
CLK: 224 Message: -- DE sends data to EX --   16448
CLK: 225 Message: -- EX recieved data from DE --   16448
CLK: 228 Message: -- IC sends ip to LS --   1320
CLK: 228 Message: -- LS recieved ip from IC --   1320
CLK: 228 Message: -- LS sends data to IC --    4665800270976925792
CLK: 232 Message: -- IC recieved data from LS --   4665800270976925792
CLK: 233 Message: -- DE recieved data from IC --   4665800270976925792
CLK: 233 Message: -- DE sends data to EX --   16480
CLK: 235 Message: -- EX recieved data from DE --   16480
CLK: 237 Message: -- IC sends ip to LS --   1322
CLK: 240 Message: -- LS recieved ip from IC --   1322
CLK: 240 Message: -- LS sends data to IC --    4665800270976925792
CLK: 240 Message: -- IC recieved data from LS --   4665800270976925792
CLK: 241 Message: -- DE recieved data from IC --   4665800270976925792
CLK: 241 Message: -- DE sends data to EX --   16512
CLK: 245 Message: -- EX recieved data from DE --   16512
CLK: 247 Message: -- IC sends ip to LS --   1324
CLK: 247 Message: -- LS recieved ip from IC --   1324
CLK: 247 Message: -- LS sends data to IC --    4665800270976925792
CLK: 252 Message: -- IC recieved data from LS --   4665800270976925792
CLK: 253 Message: -- DE recieved data from IC --   4665800270976925792
CLK: 253 Message: -- DE sends data to EX --   16544
CLK: 255 Message: -- EX recieved data from DE --   16544
CLK: 255 Message: -- IC sends ip to LS --   1326
CLK: 258 Message: -- LS recieved ip from IC --   1326
CLK: 258 Message: -- LS sends data to IC --    4665800270976925792
CLK: 258 Message: -- IC recieved data from LS --   4665800270976925792
CLK: 259 Message: -- DE recieved data from IC --   4665800270976925792
CLK: 259 Message: -- DE sends data to EX --   16576
CLK: 260 Message: -- EX recieved data from DE --   16576
CLK: 262 Message: -- IC sends ip to LS --   1328
CLK: 270 Message: -- LS recieved ip from IC --   1328
CLK: 270 Message: -- LS sends data to IC --    18446744069683027456
CLK: 270 Message: -- IC recieved data from LS --   18446744069683027456
CLK: 272 Message: -- DE recieved data from IC --   18446744069683027456
CLK: 272 Message: -- DE sends data to EX --   7680
CLK: 275 Message: -- EX recieved data from DE --   7680
CLK: 277 Message: -- IC sends ip to LS --   4096
CLK: 306 Message: -- LS recieved ip from IC --   4096
CLK: 306 Message: -- LS sends data to IC --    905237140148849744
CLK: 309 Message: -- IC recieved data from LS --   905237140148849744
CLK: 310 Message: -- DE recieved data from IC --   905237140148849744
CLK: 310 Message: -- DE sends data to EX --   3152
CLK: 315 Message: -- EX recieved data from DE --   3152
CLK: 315 Message: -- IC sends ip to LS --   4100
CLK: 315 Message: -- IC sends NEW ip to LS --  16
CLK: 324 Message: -- LS recieved ip from IC --   4100
CLK: 324 Message: -- LS sends data to IC --    18446744073709501440
CLK: 324 Message: -- LS recieved ip from IC --   4100
CLK: 325 Message: -- LS sends data to IC --    18446744073709501440
CLK: 327 Message: -- IC recieved data from LS --   18446744073709501440
CLK: 330 Message: -- IC recieved data from LS --   18446744073709501440
CLK: 331 Message: -- DE recieved data from IC --   18446744073709501440
CLK: 331 Message: -- DE sends data to EX --   65535
CLK: 335 Message: -- EX recieved data from DE --   65535
CLK: 337 Message: -- LS recieved ip from IC --   4102
CLK: 337 Message: -- LS sends data to IC --    905237140148849744
CLK: 337 Message: -- IC recieved data from LS --   905237140148849744
CLK: 338 Message: -- DE recieved data from IC --   905237140148849744
CLK: 342 Message: -- IC sends NEW ip to LS --  4104
CLK: 342 Message: -- LS recieved ip from IC --   4102
CLK: 343 Message: -- LS sends data to IC --    18446466997282668545
CLK: 346 Message: -- IC recieved data from LS --   18446466997282668545
CLK: 346 Message: -- DE sends data to EX --   3216
CLK: 350 Message: -- EX recieved data from DE --   3216
CLK: 351 Message: -- IC sends ip to LS --   4106
CLK: 360 Message: -- LS recieved ip from IC --   4106
CLK: 360 Message: -- LS sends data to IC --    18446466997282668545
CLK: 363 Message: -- IC recieved data from LS --   18446466997282668545
CLK: 364 Message: -- DE recieved data from IC --   18446466997282668545
CLK: 364 Message: -- DE sends data to EX --   7680
CLK: 365 Message: -- EX recieved data from DE --   7680
CLK: 366 Message: -- IC sends ip to LS --   1024
CLK: 379 Message: -- LS recieved ip from IC --   1024
CLK: 379 Message: -- LS sends data to IC --    2161728921488328804
CLK: 382 Message: -- IC recieved data from LS --   2161728921488328804
CLK: 384 Message: -- DE recieved data from IC --   2161728921488328804
CLK: 384 Message: -- DE sends data to EX --   2148
CLK: 385 Message: -- EX recieved data from DE --   2148
CLK: 387 Message: -- IC sends ip to LS --   1026
CLK: 396 Message: -- LS recieved ip from IC --   1026
CLK: 396 Message: -- LS sends data to IC --    2161728921488328804
CLK: 397 Message: -- IC recieved data from LS --   2161728921488328804
CLK: 398 Message: -- DE recieved data from IC --   2161728921488328804
CLK: 398 Message: -- DE sends data to EX --   12800
CLK: 400 Message: -- EX recieved data from DE --   12800
CLK: 402 Message: -- IC sends ip to LS --   256
CLK: 402 Message: -- LS recieved ip from IC --   256
CLK: 402 Message: -- LS sends data to IC --    929998833545383184
CLK: 405 Message: -- IC recieved data from LS --   929998833545383184
CLK: 406 Message: -- DE recieved data from IC --   929998833545383184
CLK: 406 Message: -- DE sends data to EX --   3344
CLK: 410 Message: -- EX recieved data from DE --   3344
CLK: 411 Message: -- IC sends ip to LS --   260
CLK: 414 Message: -- LS recieved ip from IC --   260
CLK: 414 Message: -- LS sends data to IC --    929998833545383184
CLK: 415 Message: -- IC recieved data from LS --   929998833545383184
CLK: 416 Message: -- DE recieved data from IC --   929998833545383184
CLK: 416 Message: -- DE sends data to EX --   1283
CLK: 420 Message: -- EX recieved data from DE --   1283
CLK: 423 Message: -- IC sends ip to LS --   262
CLK: 427 Message: -- LS recieved ip from IC --   262
CLK: 427 Message: -- LS sends data to IC --    929998833545383184
CLK: 429 Message: -- IC recieved data from LS --   929998833545383184
CLK: 430 Message: -- DE recieved data from IC --   929998833545383184
CLK: 430 Message: -- DE sends data to EX --   3304
CLK: 435 Message: -- EX recieved data from DE --   3304
CLK: 435 Message: -- IC sends ip to LS --   264
CLK: 438 Message: -- LS recieved ip from IC --   264
CLK: 438 Message: -- LS sends data to IC --    572914278010034
CLK: 439 Message: -- IC recieved data from LS --   572914278010034
CLK: 440 Message: -- DE recieved data from IC --   572914278010034
CLK: 440 Message: -- DE sends data to EX --   3250
CLK: 445 Message: -- EX recieved data from DE --   3250
CLK: 447 Message: -- IC sends ip to LS --   268
CLK: 450 Message: -- LS recieved ip from IC --   268
CLK: 450 Message: -- LS sends data to IC --    572914278010034
CLK: 450 Message: -- IC recieved data from LS --   572914278010034
CLK: 451 Message: -- DE recieved data from IC --   572914278010034
CLK: 451 Message: -- DE sends data to EX --   2320
CLK: 455 Message: -- EX recieved data from DE --   2320
CLK: 457 Message: -- IC sends ip to LS --   272
CLK: 474 Message: -- LS recieved ip from IC --   272
CLK: 474 Message: -- LS sends data to IC --    3314676426988850386
CLK: 477 Message: -- IC recieved data from LS --   3314676426988850386
CLK: 478 Message: -- DE recieved data from IC --   3314676426988850386
CLK: 478 Message: -- DE sends data to EX --   3282
CLK: 480 Message: -- EX recieved data from DE --   3282
CLK: 480 Message: -- LS recieved ip from IC --   276
CLK: 480 Message: -- IC sends ip to LS --   276
CLK: 481 Message: -- IC recieved data from LS --   3314676426988850386
CLK: 482 Message: -- DE recieved data from IC --   3314676426988850386
CLK: 482 Message: -- DE sends data to EX --   6310
CLK: 485 Message: -- EX recieved data from DE --   6310
CLK: 486 Message: -- LS recieved ip from IC --   278
CLK: 486 Message: -- IC sends ip to LS --   278
CLK: 486 Message: -- IC recieved data from LS --   3314676426988850386
CLK: 486 Message: -- LS sends data to IC --    3314676426988850386
CLK: 487 Message: -- DE recieved data from IC --   3314676426988850386
CLK: 490 Message: -- IC sends NEW ip to LS --  280
CLK: 492 Message: -- LS recieved ip from IC --   278
CLK: 492 Message: -- LS sends data to IC --    18446482390445460144
CLK: 495 Message: -- IC recieved data from LS --   18446482390445460144
CLK: 496 Message: -- DE sends data to EX --   11776
CLK: 496 Message: -- EX recieved data from DE --   11776
CLK: 499 Message: -- IC sends ip to LS --   282
CLK: 499 Message: -- LS recieved ip from IC --   282
CLK: 500 Message: -- LS sends data to IC --    18446482390445460144
CLK: 504 Message: -- IC recieved data from LS --   18446482390445460144
CLK: 505 Message: -- DE recieved data from IC --   18446482390445460144
CLK: 505 Message: -- DE sends data to EX --   7680
CLK: 506 Message: -- EX recieved data from DE --   7680
CLK: 507 Message: -- IC sends ip to LS --   4608
CLK: 547 Message: -- LS recieved ip from IC --   4608
CLK: 547 Message: -- LS sends data to IC --    648573321922807888
CLK: 549 Message: -- IC recieved data from LS --   648573321922807888
CLK: 550 Message: -- DE recieved data from IC --   648573321922807888
CLK: 550 Message: -- DE sends data to EX --   2128
CLK: 551 Message: -- EX recieved data from DE --   2128
CLK: 553 Message: -- IC sends ip to LS --   4612
CLK: 553 Message: -- LS recieved ip from IC --   4612
CLK: 553 Message: -- LS sends data to IC --    648573321922807888
CLK: 558 Message: -- IC recieved data from LS --   648573321922807888
CLK: 559 Message: -- DE recieved data from IC --   648573321922807888
CLK: 559 Message: -- DE sends data to EX --   12800
CLK: 560 Message: -- EX recieved data from DE --   12800
CLK: 561 Message: -- IC sends ip to LS --   4616
CLK: 588 Message: -- LS recieved ip from IC --   4616
CLK: 588 Message: -- LS sends data to IC --    18446744069481700864
CLK: 588 Message: -- IC recieved data from LS --   18446744069481700864
CLK: 589 Message: -- DE recieved data from IC --   18446744069481700864
CLK: 589 Message: -- DE sends data to EX --   7680
CLK: 590 Message: -- EX recieved data from DE --   7680
CLK: 592 Message: -- IC sends ip to LS --   1024
CLK: 600 Message: -- LS recieved ip from IC --   1024
CLK: 600 Message: -- LS sends data to IC --    2161728921488328804
CLK: 603 Message: -- IC recieved data from LS --   2161728921488328804
CLK: 604 Message: -- DE recieved data from IC --   2161728921488328804
CLK: 604 Message: -- DE sends data to EX --   2148
CLK: 605 Message: -- EX recieved data from DE --   2148
CLK: 606 Message: -- IC sends ip to LS --   1026
CLK: 607 Message: -- LS recieved ip from IC --   1026
CLK: 607 Message: -- LS sends data to IC --    2161728921488328804
CLK: 610 Message: -- IC recieved data from LS --   2161728921488328804
CLK: 612 Message: -- DE recieved data from IC --   2161728921488328804
CLK: 612 Message: -- DE sends data to EX --   12800
CLK: 615 Message: -- EX recieved data from DE --   12800
CLK: 618 Message: -- IC sends ip to LS --   256
CLK: 648 Message: -- LS recieved ip from IC --   256
CLK: 648 Message: -- LS sends data to IC --    929998833545383184
CLK: 648 Message: -- IC recieved data from LS --   929998833545383184
CLK: 649 Message: -- DE recieved data from IC --   929998833545383184
CLK: 649 Message: -- DE sends data to EX --   3344
CLK: 650 Message: -- EX recieved data from DE --   3344
CLK: 652 Message: -- IC sends ip to LS --   260
CLK: 654 Message: -- LS recieved ip from IC --   260
CLK: 654 Message: -- LS sends data to IC --    929998833545383184
CLK: 657 Message: -- IC recieved data from LS --   929998833545383184
CLK: 658 Message: -- DE recieved data from IC --   929998833545383184
CLK: 658 Message: -- DE sends data to EX --   1283
CLK: 660 Message: -- EX recieved data from DE --   1283
CLK: 660 Message: -- IC sends ip to LS --   262
CLK: 666 Message: -- LS recieved ip from IC --   262
CLK: 666 Message: -- LS sends data to IC --    929998833545383184
CLK: 666 Message: -- IC recieved data from LS --   929998833545383184
CLK: 668 Message: -- DE recieved data from IC --   929998833545383184
CLK: 668 Message: -- DE sends data to EX --   3304
CLK: 670 Message: -- EX recieved data from DE --   3304
CLK: 672 Message: -- IC sends ip to LS --   264
CLK: 678 Message: -- LS recieved ip from IC --   264
CLK: 678 Message: -- IC recieved data from LS --   572914278010034
CLK: 678 Message: -- LS sends data to IC --    572914278010034
CLK: 679 Message: -- DE recieved data from IC --   572914278010034
CLK: 679 Message: -- DE sends data to EX --   3250
CLK: 680 Message: -- EX recieved data from DE --   3250
CLK: 681 Message: -- IC sends ip to LS --   268
CLK: 702 Message: -- LS recieved ip from IC --   268
CLK: 702 Message: -- LS sends data to IC --    572914278010034
CLK: 703 Message: -- IC recieved data from LS --   572914278010034
CLK: 704 Message: -- DE recieved data from IC --   572914278010034
CLK: 704 Message: -- DE sends data to EX --   2320
CLK: 705 Message: -- EX recieved data from DE --   2320
CLK: 708 Message: -- IC sends ip to LS --   272
CLK: 732 Message: -- LS recieved ip from IC --   272
CLK: 732 Message: -- LS sends data to IC --    3314676426988850386
CLK: 732 Message: -- IC recieved data from LS --   3314676426988850386
CLK: 733 Message: -- DE recieved data from IC --   3314676426988850386
CLK: 733 Message: -- DE sends data to EX --   3282
CLK: 735 Message: -- EX recieved data from DE --   3282
CLK: 735 Message: -- IC sends ip to LS --   276
CLK: 792 Message: -- LS recieved ip from IC --   276
CLK: 792 Message: -- LS sends data to IC --    3314676426988850386
CLK: 793 Message: -- IC recieved data from LS --   3314676426988850386
CLK: 794 Message: -- DE recieved data from IC --   3314676426988850386
CLK: 794 Message: -- DE sends data to EX --   6310
CLK: 795 Message: -- EX recieved data from DE --   6310
CLK: 798 Message: -- IC sends ip to LS --   278
CLK: 810 Message: -- LS recieved ip from IC --   278
CLK: 810 Message: -- LS sends data to IC --    3314676426988850386
CLK: 810 Message: -- IC recieved data from LS --   3314676426988850386
CLK: 811 Message: -- DE recieved data from IC --   3314676426988850386
CLK: 814 Message: -- IC sends NEW ip to LS --  280
CLK: 822 Message: -- LS recieved ip from IC --   278
CLK: 822 Message: -- LS sends data to IC --    18446482390445460144
CLK: 825 Message: -- IC recieved data from LS --   18446482390445460144
CLK: 825 Message: -- DE sends data to EX --   11776
CLK: 830 Message: -- EX recieved data from DE --   11776
CLK: 831 Message: -- IC sends ip to LS --   282
CLK: 846 Message: -- LS recieved ip from IC --   282
CLK: 846 Message: -- LS sends data to IC --    18446482390445460144
CLK: 847 Message: -- IC recieved data from LS --   18446482390445460144
CLK: 848 Message: -- DE recieved data from IC --   18446482390445460144
CLK: 848 Message: -- DE sends data to EX --   7680
CLK: 850 Message: -- EX recieved data from DE --   7680
CLK: 852 Message: -- IC sends ip to LS --   4608
CLK: 865 Message: -- LS recieved ip from IC --   4608
CLK: 865 Message: -- LS sends data to IC --    648573321922807888
CLK: 867 Message: -- IC recieved data from LS --   648573321922807888
CLK: 868 Message: -- DE recieved data from IC --   648573321922807888
CLK: 868 Message: -- DE sends data to EX --   2128
CLK: 870 Message: -- EX recieved data from DE --   2128
CLK: 870 Message: -- IC sends ip to LS --   4612
CLK: 870 Message: -- LS recieved ip from IC --   4612
CLK: 870 Message: -- LS sends data to IC --    648573321922807888
CLK: 873 Message: -- IC recieved data from LS --   648573321922807888
CLK: 874 Message: -- DE recieved data from IC --   648573321922807888
CLK: 874 Message: -- DE sends data to EX --   12800
CLK: 875 Message: -- EX recieved data from DE --   12800
CLK: 877 Message: -- IC sends ip to LS --   4616
CLK: 877 Message: -- LS recieved ip from IC --   4616
CLK: 877 Message: -- IC recieved data from LS --   18446744069481700864
CLK: 877 Message: -- LS sends data to IC --    18446744069481700864
CLK: 878 Message: -- DE recieved data from IC --   18446744069481700864
CLK: 878 Message: -- DE sends data to EX --   7680
CLK: 880 Message: -- EX recieved data from DE --   7680
CLK: 882 Message: -- IC sends ip to LS --   1024
CLK: 882 Message: -- LS recieved ip from IC --   1024
CLK: 883 Message: -- LS sends data to IC --    2161728921488328804
CLK: 886 Message: -- IC recieved data from LS --   2161728921488328804
CLK: 887 Message: -- DE recieved data from IC --   2161728921488328804
CLK: 887 Message: -- DE sends data to EX --   2148
CLK: 890 Message: -- EX recieved data from DE --   2148
CLK: 891 Message: -- IC sends ip to LS --   1026
CLK: 900 Message: -- LS recieved ip from IC --   1026
CLK: 900 Message: -- IC recieved data from LS --   2161728921488328804
CLK: 900 Message: -- LS sends data to IC --    2161728921488328804
CLK: 902 Message: -- DE recieved data from IC --   2161728921488328804
CLK: 902 Message: -- DE sends data to EX --   12800
CLK: 905 Message: -- EX recieved data from DE --   12800
CLK: 907 Message: -- IC sends ip to LS --   256
CLK: 924 Message: -- LS recieved ip from IC --   256
CLK: 924 Message: -- LS sends data to IC --    929998833545383184
CLK: 928 Message: -- IC recieved data from LS --   929998833545383184
CLK: 930 Message: -- DE recieved data from IC --   929998833545383184
CLK: 930 Message: -- DE sends data to EX --   3344
CLK: 931 Message: -- EX recieved data from DE --   3344
CLK: 933 Message: -- IC sends ip to LS --   260
CLK: 942 Message: -- LS recieved ip from IC --   260
CLK: 942 Message: -- LS sends data to IC --    929998833545383184
CLK: 942 Message: -- IC recieved data from LS --   929998833545383184
CLK: 943 Message: -- DE recieved data from IC --   929998833545383184
CLK: 943 Message: -- DE sends data to EX --   1283
CLK: 945 Message: -- EX recieved data from DE --   1283
CLK: 946 Message: -- IC sends ip to LS --   262
CLK: 990 Message: -- LS recieved ip from IC --   262
CLK: 990 Message: -- LS sends data to IC --    929998833545383184
CLK: 994 Message: -- IC recieved data from LS --   929998833545383184
CLK: 995 Message: -- DE recieved data from IC --   929998833545383184
CLK: 995 Message: -- DE sends data to EX --   3304
CLK: 1000 Message: -- EX recieved data from DE --   3304
CLK: 1002 Message: -- IC sends ip to LS --   264
CLK: 1008 Message: -- LS recieved ip from IC --   264
CLK: 1008 Message: -- LS sends data to IC --    572914278010034
CLK: 1009 Message: -- IC recieved data from LS --   572914278010034
CLK: 1010 Message: -- DE recieved data from IC --   572914278010034
CLK: 1010 Message: -- DE sends data to EX --   3250
CLK: 1015 Message: -- EX recieved data from DE --   3250
CLK: 1017 Message: -- IC sends ip to LS --   268
CLK: 1020 Message: -- LS recieved ip from IC --   268
CLK: 1020 Message: -- LS sends data to IC --    572914278010034
CLK: 1020 Message: -- IC recieved data from LS --   572914278010034
CLK: 1021 Message: -- DE recieved data from IC --   572914278010034
CLK: 1021 Message: -- DE sends data to EX --   2320
CLK: 1025 Message: -- EX recieved data from DE --   2320
CLK: 1027 Message: -- IC sends ip to LS --   272
CLK: 1027 Message: -- LS recieved ip from IC --   272
CLK: 1027 Message: -- LS sends data to IC --    3314676426988850386
CLK: 1027 Message: -- IC recieved data from LS --   3314676426988850386
CLK: 1028 Message: -- DE recieved data from IC --   3314676426988850386
CLK: 1028 Message: -- DE sends data to EX --   3282
CLK: 1030 Message: -- EX recieved data from DE --   3282
CLK: 1032 Message: -- IC sends ip to LS --   276
CLK: 1032 Message: -- LS recieved ip from IC --   276
CLK: 1033 Message: -- LS sends data to IC --    3314676426988850386
CLK: 1033 Message: -- IC recieved data from LS --   3314676426988850386
CLK: 1034 Message: -- DE recieved data from IC --   3314676426988850386
CLK: 1034 Message: -- DE sends data to EX --   6310
CLK: 1035 Message: -- EX recieved data from DE --   6310
CLK: 1038 Message: -- LS recieved ip from IC --   278
CLK: 1038 Message: -- IC sends ip to LS --   278
CLK: 1038 Message: -- LS sends data to IC --    3314676426988850386
CLK: 1041 Message: -- IC recieved data from LS --   3314676426988850386
CLK: 1042 Message: -- DE recieved data from IC --   3314676426988850386
CLK: 1044 Message: -- IC sends NEW ip to LS --  280
CLK: 1056 Message: -- LS recieved ip from IC --   278
CLK: 1056 Message: -- LS sends data to IC --    18446482390445460144
CLK: 1060 Message: -- IC recieved data from LS --   18446482390445460144
CLK: 1060 Message: -- DE sends data to EX --   11776
CLK: 1065 Message: -- EX recieved data from DE --   11776
CLK: 1065 Message: -- IC sends ip to LS --   282
CLK: 1068 Message: -- LS recieved ip from IC --   282
CLK: 1068 Message: -- LS sends data to IC --    18446482390445460144
CLK: 1068 Message: -- IC recieved data from LS --   18446482390445460144
CLK: 1069 Message: -- DE recieved data from IC --   18446482390445460144
CLK: 1069 Message: -- DE sends data to EX --   7680
CLK: 1070 Message: -- EX recieved data from DE --   7680
CLK: 1072 Message: -- IC sends ip to LS --   4608
CLK: 1092 Message: -- LS recieved ip from IC --   4608
CLK: 1092 Message: -- LS sends data to IC --    648573321922807888
CLK: 1095 Message: -- IC recieved data from LS --   648573321922807888
CLK: 1096 Message: -- DE recieved data from IC --   648573321922807888
CLK: 1096 Message: -- DE sends data to EX --   2128
CLK: 1100 Message: -- EX recieved data from DE --   2128
CLK: 1101 Message: -- IC sends ip to LS --   4612
CLK: 1105 Message: -- LS recieved ip from IC --   4612
CLK: 1105 Message: -- LS sends data to IC --    648573321922807888
CLK: 1108 Message: -- IC recieved data from LS --   648573321922807888
CLK: 1109 Message: -- DE recieved data from IC --   648573321922807888
CLK: 1109 Message: -- DE sends data to EX --   12800
CLK: 1110 Message: -- EX recieved data from DE --   12800
CLK: 1113 Message: -- IC sends ip to LS --   4616
CLK: 1116 Message: -- LS recieved ip from IC --   4616
CLK: 1116 Message: -- LS sends data to IC --    18446744069481700864
CLK: 1116 Message: -- IC recieved data from LS --   18446744069481700864
CLK: 1117 Message: -- DE recieved data from IC --   18446744069481700864
CLK: 1117 Message: -- DE sends data to EX --   7680
CLK: 1120 Message: -- EX recieved data from DE --   7680
CLK: 1123 Message: -- IC sends ip to LS --   1024
CLK: 1134 Message: -- LS recieved ip from IC --   1024
CLK: 1134 Message: -- LS sends data to IC --    2161728921488328804
CLK: 1137 Message: -- IC recieved data from LS --   2161728921488328804
CLK: 1138 Message: -- DE recieved data from IC --   2161728921488328804
CLK: 1138 Message: -- DE sends data to EX --   2148
CLK: 1140 Message: -- EX recieved data from DE --   2148
CLK: 1140 Message: -- IC sends ip to LS --   1026
CLK: 1140 Message: -- LS recieved ip from IC --   1026
CLK: 1141 Message: -- LS sends data to IC --    2161728921488328804
CLK: 1144 Message: -- IC recieved data from LS --   2161728921488328804
CLK: 1145 Message: -- DE recieved data from IC --   2161728921488328804
CLK: 1145 Message: -- DE sends data to EX --   12800
CLK: 1150 Message: -- EX recieved data from DE --   12800
CLK: 1152 Message: -- IC sends ip to LS --   256
CLK: 1153 Message: -- LS recieved ip from IC --   256
CLK: 1153 Message: -- LS sends data to IC --    929998833545383184
CLK: 1155 Message: -- IC recieved data from LS --   929998833545383184
CLK: 1156 Message: -- DE recieved data from IC --   929998833545383184
CLK: 1156 Message: -- DE sends data to EX --   3344
CLK: 1160 Message: -- EX recieved data from DE --   3344
CLK: 1162 Message: -- IC sends ip to LS --   260
CLK: 1164 Message: -- LS recieved ip from IC --   260
CLK: 1164 Message: -- LS sends data to IC --    929998833545383184
CLK: 1167 Message: -- IC recieved data from LS --   929998833545383184
CLK: 1168 Message: -- DE recieved data from IC --   929998833545383184
CLK: 1168 Message: -- DE sends data to EX --   1283
CLK: 1170 Message: -- EX recieved data from DE --   1283
CLK: 1170 Message: -- IC sends ip to LS --   262
CLK: 1176 Message: -- LS recieved ip from IC --   262
CLK: 1176 Message: -- LS sends data to IC --    929998833545383184
CLK: 1176 Message: -- IC recieved data from LS --   929998833545383184
CLK: 1177 Message: -- DE recieved data from IC --   929998833545383184
CLK: 1177 Message: -- DE sends data to EX --   3304
CLK: 1180 Message: -- EX recieved data from DE --   3304
CLK: 1183 Message: -- IC sends ip to LS --   264
CLK: 1194 Message: -- LS recieved ip from IC --   264
CLK: 1194 Message: -- LS sends data to IC --    572914278010034
CLK: 1197 Message: -- IC recieved data from LS --   572914278010034
CLK: 1198 Message: -- DE recieved data from IC --   572914278010034
CLK: 1198 Message: -- DE sends data to EX --   3250
CLK: 1200 Message: -- EX recieved data from DE --   3250
CLK: 1200 Message: -- IC sends ip to LS --   268
CLK: 1206 Message: -- LS recieved ip from IC --   268
CLK: 1206 Message: -- LS sends data to IC --    572914278010034
CLK: 1207 Message: -- IC recieved data from LS --   572914278010034
CLK: 1208 Message: -- DE recieved data from IC --   572914278010034
CLK: 1208 Message: -- DE sends data to EX --   2320
CLK: 1210 Message: -- EX recieved data from DE --   2320
CLK: 1212 Message: -- IC sends ip to LS --   272
CLK: 1219 Message: -- LS recieved ip from IC --   272
CLK: 1219 Message: -- LS sends data to IC --    3314676426988850386
CLK: 1221 Message: -- IC recieved data from LS --   3314676426988850386
CLK: 1222 Message: -- DE recieved data from IC --   3314676426988850386
CLK: 1222 Message: -- DE sends data to EX --   3282
CLK: 1225 Message: -- EX recieved data from DE --   3282
CLK: 1228 Message: -- IC sends ip to LS --   276
CLK: 1242 Message: -- LS recieved ip from IC --   276
CLK: 1242 Message: -- LS sends data to IC --    3314676426988850386
CLK: 1245 Message: -- IC recieved data from LS --   3314676426988850386
CLK: 1246 Message: -- DE recieved data from IC --   3314676426988850386
CLK: 1246 Message: -- DE sends data to EX --   6310
CLK: 1250 Message: -- EX recieved data from DE --   6310
CLK: 1251 Message: -- IC sends ip to LS --   278
CLK: 1254 Message: -- LS recieved ip from IC --   278
CLK: 1254 Message: -- LS sends data to IC --    3314676426988850386
CLK: 1255 Message: -- IC recieved data from LS --   3314676426988850386
CLK: 1256 Message: -- DE recieved data from IC --   3314676426988850386
CLK: 1260 Message: -- IC sends NEW ip to LS --  280
CLK: 1272 Message: -- LS recieved ip from IC --   278
CLK: 1272 Message: -- LS sends data to IC --    18446482390445460144
CLK: 1272 Message: -- IC recieved data from LS --   18446482390445460144
CLK: 1273 Message: -- DE sends data to EX --   11776
CLK: 1275 Message: -- EX recieved data from DE --   11776
CLK: 1276 Message: -- IC sends ip to LS --   282
CLK: 1296 Message: -- LS recieved ip from IC --   282
CLK: 1296 Message: -- LS sends data to IC --    18446482390445460144
CLK: 1299 Message: -- IC recieved data from LS --   18446482390445460144
CLK: 1300 Message: -- DE recieved data from IC --   18446482390445460144
CLK: 1300 Message: -- DE sends data to EX --   7680
CLK: 1305 Message: -- EX recieved data from DE --   7680
CLK: 1305 Message: -- IC sends ip to LS --   4608
CLK: 1344 Message: -- LS recieved ip from IC --   4608
CLK: 1344 Message: -- LS sends data to IC --    648573321922807888
CLK: 1345 Message: -- IC recieved data from LS --   648573321922807888
CLK: 1346 Message: -- DE recieved data from IC --   648573321922807888
CLK: 1346 Message: -- DE sends data to EX --   2128
CLK: 1350 Message: -- EX recieved data from DE --   2128
CLK: 1353 Message: -- IC sends ip to LS --   4612
CLK: 1362 Message: -- LS recieved ip from IC --   4612
CLK: 1362 Message: -- LS sends data to IC --    648573321922807888
CLK: 1365 Message: -- IC recieved data from LS --   648573321922807888
CLK: 1366 Message: -- DE recieved data from IC --   648573321922807888
CLK: 1366 Message: -- DE sends data to EX --   12800
CLK: 1370 Message: -- EX recieved data from DE --   12800
CLK: 1372 Message: -- IC sends ip to LS --   4616
CLK: 1375 Message: -- LS recieved ip from IC --   4616
CLK: 1375 Message: -- LS sends data to IC --    18446744069481700864
CLK: 1377 Message: -- IC recieved data from LS --   18446744069481700864
CLK: 1378 Message: -- DE recieved data from IC --   18446744069481700864
CLK: 1378 Message: -- DE sends data to EX --   7680
CLK: 1380 Message: -- EX recieved data from DE --   7680
CLK: 1380 Message: -- IC sends ip to LS --   1024
CLK: 1380 Message: -- LS recieved ip from IC --   1024
CLK: 1381 Message: -- LS sends data to IC --    2161728921488328804
CLK: 1383 Message: -- IC recieved data from LS --   2161728921488328804
CLK: 1384 Message: -- DE recieved data from IC --   2161728921488328804
CLK: 1384 Message: -- DE sends data to EX --   2148
CLK: 1385 Message: -- EX recieved data from DE --   2148
CLK: 1387 Message: -- LS recieved ip from IC --   1026
CLK: 1387 Message: -- IC sends ip to LS --   1026
CLK: 1387 Message: -- LS sends data to IC --    2161728921488328804
CLK: 1392 Message: -- IC recieved data from LS --   2161728921488328804
CLK: 1393 Message: -- DE recieved data from IC --   2161728921488328804
CLK: 1393 Message: -- DE sends data to EX --   12800
CLK: 1395 Message: -- EX recieved data from DE --   12800
CLK: 1395 Message: -- IC sends ip to LS --   256
CLK: 1398 Message: -- LS recieved ip from IC --   256
CLK: 1398 Message: -- LS sends data to IC --    929998833545383184
CLK: 1399 Message: -- IC recieved data from LS --   929998833545383184
CLK: 1400 Message: -- DE recieved data from IC --   929998833545383184
CLK: 1400 Message: -- DE sends data to EX --   3344
CLK: 1405 Message: -- EX recieved data from DE --   3344
CLK: 1408 Message: -- IC sends ip to LS --   260
CLK: 1411 Message: -- LS recieved ip from IC --   260
CLK: 1411 Message: -- LS sends data to IC --    929998833545383184
CLK: 1413 Message: -- IC recieved data from LS --   929998833545383184
CLK: 1414 Message: -- DE recieved data from IC --   929998833545383184
CLK: 1414 Message: -- DE sends data to EX --   1283
CLK: 1415 Message: -- EX recieved data from DE --   1283
CLK: 1416 Message: -- IC sends ip to LS --   262
CLK: 1416 Message: -- LS recieved ip from IC --   262
CLK: 1417 Message: -- LS sends data to IC --    929998833545383184
CLK: 1417 Message: -- IC recieved data from LS --   929998833545383184
CLK: 1418 Message: -- DE recieved data from IC --   929998833545383184
CLK: 1418 Message: -- DE sends data to EX --   3304
CLK: 1420 Message: -- EX recieved data from DE --   3304
CLK: 1422 Message: -- IC sends ip to LS --   264
CLK: 1422 Message: -- LS recieved ip from IC --   264
CLK: 1423 Message: -- LS sends data to IC --    572914278010034
CLK: 1423 Message: -- IC recieved data from LS --   572914278010034
CLK: 1424 Message: -- DE recieved data from IC --   572914278010034
CLK: 1424 Message: -- DE sends data to EX --   3250
CLK: 1425 Message: -- EX recieved data from DE --   3250
CLK: 1428 Message: -- IC sends ip to LS --   268
CLK: 1428 Message: -- LS recieved ip from IC --   268
CLK: 1428 Message: -- LS sends data to IC --    572914278010034
CLK: 1431 Message: -- IC recieved data from LS --   572914278010034
CLK: 1432 Message: -- DE recieved data from IC --   572914278010034
CLK: 1432 Message: -- DE sends data to EX --   2320
CLK: 1435 Message: -- EX recieved data from DE --   2320
CLK: 1438 Message: -- IC sends ip to LS --   272
CLK: 1447 Message: -- LS recieved ip from IC --   272
CLK: 1447 Message: -- LS sends data to IC --    3314676426988850386
CLK: 1449 Message: -- IC recieved data from LS --   3314676426988850386
CLK: 1450 Message: -- DE recieved data from IC --   3314676426988850386
CLK: 1450 Message: -- DE sends data to EX --   3282
CLK: 1455 Message: -- EX recieved data from DE --   3282
CLK: 1455 Message: -- IC sends ip to LS --   276
CLK: 1458 Message: -- LS recieved ip from IC --   276
CLK: 1458 Message: -- LS sends data to IC --    3314676426988850386
CLK: 1458 Message: -- IC recieved data from LS --   3314676426988850386
CLK: 1460 Message: -- DE recieved data from IC --   3314676426988850386
CLK: 1460 Message: -- DE sends data to EX --   6310
CLK: 1465 Message: -- EX recieved data from DE --   6310
CLK: 1468 Message: -- IC sends ip to LS --   278
CLK: 1471 Message: -- LS recieved ip from IC --   278
CLK: 1471 Message: -- LS sends data to IC --    3314676426988850386
CLK: 1473 Message: -- IC recieved data from LS --   3314676426988850386
CLK: 1474 Message: -- DE recieved data from IC --   3314676426988850386
CLK: 1476 Message: -- LS recieved ip from IC --   278
CLK: 1476 Message: -- IC sends NEW ip to LS --  280
CLK: 1477 Message: -- IC recieved MORE data from LS --   503319216
CLK: 1477 Message: -- DE sends data to EX --   11776
CLK: 1477 Message: -- LS sends data to IC --    18446482390445460144
CLK: 1480 Message: -- EX recieved data from DE --   11776
CLK: 1482 Message: -- LS recieved ip from IC --   282
CLK: 1482 Message: -- IC sends ip to LS --   282
CLK: 1483 Message: -- LS sends data to IC --    18446482390445460144
CLK: 1486 Message: -- IC recieved data from LS --   18446482390445460144
CLK: 1488 Message: -- DE recieved data from IC --   18446482390445460144
CLK: 1488 Message: -- DE sends data to EX --   7680
CLK: 1490 Message: -- EX recieved data from DE --   7680
CLK: 1491 Message: -- IC sends ip to LS --   4608
CLK: 1506 Message: -- LS recieved ip from IC --   4608
CLK: 1506 Message: -- LS sends data to IC --    648573321922807888
CLK: 1506 Message: -- IC recieved data from LS --   648573321922807888
CLK: 1507 Message: -- DE recieved data from IC --   648573321922807888
CLK: 1507 Message: -- DE sends data to EX --   2128
CLK: 1510 Message: -- EX recieved data from DE --   2128
CLK: 1513 Message: -- LS recieved ip from IC --   4612
CLK: 1513 Message: -- IC sends ip to LS --   4612
CLK: 1513 Message: -- LS sends data to IC --    648573321922807888
CLK: 1513 Message: -- IC recieved data from LS --   648573321922807888
CLK: 1514 Message: -- DE recieved data from IC --   648573321922807888
CLK: 1514 Message: -- DE sends data to EX --   12800
CLK: 1515 Message: -- EX recieved data from DE --   12800
CLK: 1518 Message: -- IC sends ip to LS --   4616
CLK: 1518 Message: -- LS recieved ip from IC --   4616
CLK: 1519 Message: -- IC recieved data from LS --   18446744069481700864
CLK: 1519 Message: -- LS sends data to IC --    18446744069481700864
CLK: 1520 Message: -- DE recieved data from IC --   18446744069481700864
CLK: 1520 Message: -- DE sends data to EX --   7680
CLK: 1521 Message: -- EX recieved data from DE --   7680
CLK: 1524 Message: -- IC sends ip to LS --   1024
CLK: 1524 Message: -- LS recieved ip from IC --   1024
CLK: 1524 Message: -- LS sends data to IC --    2161728921488328804
CLK: 1524 Message: -- IC recieved data from LS --   2161728921488328804
CLK: 1525 Message: -- DE recieved data from IC --   2161728921488328804
CLK: 1525 Message: -- DE sends data to EX --   2148
CLK: 1530 Message: -- EX recieved data from DE --   2148
CLK: 1531 Message: -- LS recieved ip from IC --   1026
CLK: 1531 Message: -- IC sends ip to LS --   1026
CLK: 1531 Message: -- LS sends data to IC --    2161728921488328804
CLK: 1536 Message: -- IC recieved data from LS --   2161728921488328804
CLK: 1537 Message: -- DE recieved data from IC --   2161728921488328804
CLK: 1537 Message: -- DE sends data to EX --   12800
CLK: 1540 Message: -- EX recieved data from DE --   12800
CLK: 1542 Message: -- IC sends ip to LS --   256
CLK: 1548 Message: -- LS recieved ip from IC --   256
CLK: 1548 Message: -- LS sends data to IC --    929998833545383184
CLK: 1548 Message: -- IC recieved data from LS --   929998833545383184
CLK: 1549 Message: -- DE recieved data from IC --   929998833545383184
CLK: 1549 Message: -- DE sends data to EX --   3344
CLK: 1550 Message: -- EX recieved data from DE --   3344
CLK: 1552 Message: -- IC sends ip to LS --   260
CLK: 1560 Message: -- LS recieved ip from IC --   260
CLK: 1560 Message: -- LS sends data to IC --    929998833545383184
CLK: 1563 Message: -- IC recieved data from LS --   929998833545383184
CLK: 1564 Message: -- DE recieved data from IC --   929998833545383184
CLK: 1564 Message: -- DE sends data to EX --   1283
CLK: 1565 Message: -- EX recieved data from DE --   1283
CLK: 1566 Message: -- IC sends ip to LS --   262
CLK: 1566 Message: -- LS recieved ip from IC --   262
CLK: 1567 Message: -- LS sends data to IC --    929998833545383184
CLK: 1570 Message: -- IC recieved data from LS --   929998833545383184
CLK: 1571 Message: -- DE recieved data from IC --   929998833545383184
CLK: 1571 Message: -- DE sends data to EX --   3304
CLK: 1575 Message: -- EX recieved data from DE --   3304
CLK: 1578 Message: -- IC sends ip to LS --   264
CLK: 1578 Message: -- LS recieved ip from IC --   264
CLK: 1578 Message: -- LS sends data to IC --    572914278010034
CLK: 1578 Message: -- IC recieved data from LS --   572914278010034
CLK: 1579 Message: -- DE recieved data from IC --   572914278010034
CLK: 1579 Message: -- DE sends data to EX --   3250
CLK: 1580 Message: -- EX recieved data from DE --   3250
CLK: 1581 Message: -- IC sends ip to LS --   268
CLK: 1584 Message: -- LS recieved ip from IC --   268
CLK: 1584 Message: -- LS sends data to IC --    572914278010034
CLK: 1585 Message: -- IC recieved data from LS --   572914278010034
CLK: 1586 Message: -- DE recieved data from IC --   572914278010034
CLK: 1586 Message: -- DE sends data to EX --   2320
CLK: 1590 Message: -- EX recieved data from DE --   2320
CLK: 1593 Message: -- IC sends ip to LS --   272
CLK: 1596 Message: -- LS recieved ip from IC --   272
CLK: 1596 Message: -- LS sends data to IC --    3314676426988850386
CLK: 1596 Message: -- IC recieved data from LS --   3314676426988850386
CLK: 1597 Message: -- DE recieved data from IC --   3314676426988850386
CLK: 1597 Message: -- DE sends data to EX --   3282
CLK: 1600 Message: -- EX recieved data from DE --   3282
CLK: 1602 Message: -- IC sends ip to LS --   276
CLK: 1609 Message: -- LS recieved ip from IC --   276
CLK: 1609 Message: -- LS sends data to IC --    3314676426988850386
CLK: 1612 Message: -- IC recieved data from LS --   3314676426988850386
CLK: 1613 Message: -- DE recieved data from IC --   3314676426988850386
CLK: 1613 Message: -- DE sends data to EX --   6310
CLK: 1615 Message: -- EX recieved data from DE --   6310
CLK: 1617 Message: -- IC sends ip to LS --   278
CLK: 1626 Message: -- LS recieved ip from IC --   278
CLK: 1626 Message: -- LS sends data to IC --    3314676426988850386
CLK: 1626 Message: -- IC recieved data from LS --   3314676426988850386
CLK: 1627 Message: -- DE recieved data from IC --   3314676426988850386
CLK: 1630 Message: -- IC sends NEW ip to LS --  280
CLK: 1633 Message: -- LS recieved ip from IC --   278
CLK: 1633 Message: -- LS sends data to IC --    18446482390445460144
CLK: 1635 Message: -- IC recieved data from LS --   18446482390445460144
CLK: 1636 Message: -- DE sends data to EX --   11776
CLK: 1640 Message: -- EX recieved data from DE --   11776
CLK: 1641 Message: -- IC sends ip to LS --   282
CLK: 1644 Message: -- LS recieved ip from IC --   282
CLK: 1644 Message: -- LS sends data to IC --    18446482390445460144
CLK: 1651 Message: -- IC recieved data from LS --   18446482390445460144
CLK: 1652 Message: -- DE recieved data from IC --   18446482390445460144
CLK: 1652 Message: -- DE sends data to EX --   7680
CLK: 1655 Message: -- EX recieved data from DE --   7680
CLK: 1656 Message: -- LS recieved ip from IC --   4608
CLK: 1656 Message: -- IC sends ip to LS --   4608
CLK: 1656 Message: -- LS sends data to IC --    648573321922807888
CLK: 1659 Message: -- IC recieved data from LS --   648573321922807888
CLK: 1660 Message: -- DE recieved data from IC --   648573321922807888
CLK: 1660 Message: -- DE sends data to EX --   2128
CLK: 1661 Message: -- EX recieved data from DE --   2128
CLK: 1663 Message: -- LS recieved ip from IC --   4612
CLK: 1663 Message: -- IC sends ip to LS --   4612
CLK: 1663 Message: -- LS sends data to IC --    648573321922807888
CLK: 1668 Message: -- IC recieved data from LS --   648573321922807888
CLK: 1669 Message: -- DE recieved data from IC --   648573321922807888
CLK: 1669 Message: -- DE sends data to EX --   12800
CLK: 1670 Message: -- EX recieved data from DE --   12800
CLK: 1671 Message: -- IC sends ip to LS --   4616
CLK: 1680 Message: -- LS recieved ip from IC --   4616
CLK: 1680 Message: -- LS sends data to IC --    18446744069481700864
CLK: 1681 Message: -- IC recieved data from LS --   18446744069481700864
CLK: 1682 Message: -- DE recieved data from IC --   18446744069481700864
CLK: 1682 Message: -- DE sends data to EX --   7680
CLK: 1685 Message: -- EX recieved data from DE --   7680
CLK: 1686 Message: -- IC sends ip to LS --   1024
CLK: 1686 Message: -- LS recieved ip from IC --   1024
CLK: 1686 Message: -- IC recieved data from LS --   2161728921488328804
CLK: 1686 Message: -- LS sends data to IC --    2161728921488328804
CLK: 1687 Message: -- DE recieved data from IC --   2161728921488328804
CLK: 1687 Message: -- DE sends data to EX --   2148
CLK: 1690 Message: -- EX recieved data from DE --   2148
CLK: 1693 Message: -- IC sends ip to LS --   1026
CLK: 1693 Message: -- LS recieved ip from IC --   1026
CLK: 1693 Message: -- IC recieved data from LS --   2161728921488328804
CLK: 1693 Message: -- LS sends data to IC --    2161728921488328804
CLK: 1694 Message: -- DE recieved data from IC --   2161728921488328804
CLK: 1694 Message: -- DE sends data to EX --   12800
CLK: 1695 Message: -- EX recieved data from DE --   12800
CLK: 1698 Message: -- IC sends ip to LS --   256
CLK: 1698 Message: -- LS recieved ip from IC --   256
CLK: 1698 Message: -- IC recieved data from LS --   929998833545383184
CLK: 1698 Message: -- LS sends data to IC --    929998833545383184
CLK: 1700 Message: -- DE recieved data from IC --   929998833545383184
CLK: 1700 Message: -- DE sends data to EX --   3344
CLK: 1701 Message: -- EX recieved data from DE --   3344
CLK: 1702 Message: -- IC sends ip to LS --   260
CLK: 1710 Message: -- LS recieved ip from IC --   260
CLK: 1710 Message: -- LS sends data to IC --    929998833545383184
CLK: 1713 Message: -- IC recieved data from LS --   929998833545383184
CLK: 1714 Message: -- DE recieved data from IC --   929998833545383184
CLK: 1714 Message: -- DE sends data to EX --   1283
CLK: 1715 Message: -- EX recieved data from DE --   1283
CLK: 1716 Message: -- IC sends ip to LS --   262
CLK: 1722 Message: -- LS recieved ip from IC --   262
CLK: 1722 Message: -- LS sends data to IC --    929998833545383184
CLK: 1723 Message: -- IC recieved data from LS --   929998833545383184
CLK: 1724 Message: -- DE recieved data from IC --   929998833545383184
CLK: 1724 Message: -- DE sends data to EX --   3304
CLK: 1725 Message: -- EX recieved data from DE --   3304
CLK: 1728 Message: -- IC sends ip to LS --   264
CLK: 1735 Message: -- LS recieved ip from IC --   264
CLK: 1735 Message: -- LS sends data to IC --    572914278010034
CLK: 1737 Message: -- IC recieved data from LS --   572914278010034
CLK: 1738 Message: -- DE recieved data from IC --   572914278010034
CLK: 1738 Message: -- DE sends data to EX --   3250
CLK: 1740 Message: -- EX recieved data from DE --   3250
CLK: 1740 Message: -- IC sends ip to LS --   268
CLK: 1740 Message: -- LS recieved ip from IC --   268
CLK: 1741 Message: -- IC recieved data from LS --   572914278010034
CLK: 1741 Message: -- LS sends data to IC --    572914278010034
CLK: 1742 Message: -- DE recieved data from IC --   572914278010034
CLK: 1742 Message: -- DE sends data to EX --   2320
CLK: 1745 Message: -- EX recieved data from DE --   2320
CLK: 1746 Message: -- IC sends ip to LS --   272
CLK: 1746 Message: -- LS recieved ip from IC --   272
CLK: 1747 Message: -- LS sends data to IC --    3314676426988850386
CLK: 1750 Message: -- IC recieved data from LS --   3314676426988850386
CLK: 1751 Message: -- DE recieved data from IC --   3314676426988850386
CLK: 1751 Message: -- DE sends data to EX --   3282
CLK: 1755 Message: -- EX recieved data from DE --   3282
CLK: 1758 Message: -- IC sends ip to LS --   276
CLK: 1783 Message: -- LS recieved ip from IC --   276
CLK: 1783 Message: -- LS sends data to IC --    3314676426988850386
CLK: 1785 Message: -- IC recieved data from LS --   3314676426988850386
CLK: 1786 Message: -- DE recieved data from IC --   3314676426988850386
CLK: 1786 Message: -- DE sends data to EX --   6310
CLK: 1790 Message: -- EX recieved data from DE --   6310
CLK: 1791 Message: -- IC sends ip to LS --   278
CLK: 1806 Message: -- LS recieved ip from IC --   278
CLK: 1806 Message: -- LS sends data to IC --    3314676426988850386
CLK: 1809 Message: -- IC recieved data from LS --   3314676426988850386
CLK: 1810 Message: -- DE recieved data from IC --   3314676426988850386
CLK: 1812 Message: -- IC sends NEW ip to LS --  280
CLK: 1813 Message: -- LS recieved ip from IC --   278
CLK: 1813 Message: -- LS sends data to IC --    18446482390445460144
CLK: 1815 Message: -- IC recieved data from LS --   18446482390445460144
CLK: 1816 Message: -- DE sends data to EX --   11776
CLK: 1820 Message: -- EX recieved data from DE --   11776
CLK: 1822 Message: -- IC sends ip to LS --   282
CLK: 1824 Message: -- LS recieved ip from IC --   282
CLK: 1825 Message: -- LS sends data to IC --    18446482390445460144
CLK: 1827 Message: -- IC recieved data from LS --   18446482390445460144
CLK: 1828 Message: -- DE recieved data from IC --   18446482390445460144
CLK: 1828 Message: -- DE sends data to EX --   7680
CLK: 1830 Message: -- EX recieved data from DE --   7680
CLK: 1830 Message: -- LS recieved ip from IC --   4608
CLK: 1830 Message: -- IC sends ip to LS --   4608
CLK: 1831 Message: -- LS sends data to IC --    648573321922807888
CLK: 1831 Message: -- IC recieved data from LS --   648573321922807888
CLK: 1832 Message: -- DE recieved data from IC --   648573321922807888
CLK: 1832 Message: -- DE sends data to EX --   2128
CLK: 1835 Message: -- EX recieved data from DE --   2128
CLK: 1836 Message: -- IC sends ip to LS --   4612
CLK: 1836 Message: -- LS recieved ip from IC --   4612
CLK: 1836 Message: -- LS sends data to IC --    648573321922807888
CLK: 1839 Message: -- IC recieved data from LS --   648573321922807888
CLK: 1840 Message: -- DE recieved data from IC --   648573321922807888
CLK: 1840 Message: -- DE sends data to EX --   12800
CLK: 1841 Message: -- EX recieved data from DE --   12800
CLK: 1843 Message: -- IC sends ip to LS --   4616
CLK: 1867 Message: -- LS recieved ip from IC --   4616
CLK: 1867 Message: -- LS sends data to IC --    18446744069481700864
CLK: 1870 Message: -- IC recieved data from LS --   18446744069481700864
CLK: 1871 Message: -- DE recieved data from IC --   18446744069481700864
CLK: 1871 Message: -- DE sends data to EX --   7680
CLK: 1875 Message: -- EX recieved data from DE --   7680
CLK: 1878 Message: -- IC sends ip to LS --   1024
CLK: 1884 Message: -- LS recieved ip from IC --   1024
CLK: 1884 Message: -- LS sends data to IC --    2161728921488328804
CLK: 1884 Message: -- IC recieved data from LS --   2161728921488328804
CLK: 1885 Message: -- DE recieved data from IC --   2161728921488328804
CLK: 1885 Message: -- DE sends data to EX --   2148
CLK: 1886 Message: -- EX recieved data from DE --   2148
CLK: 1888 Message: -- IC sends ip to LS --   1026
CLK: 1890 Message: -- LS recieved ip from IC --   1026
CLK: 1890 Message: -- LS sends data to IC --    2161728921488328804
CLK: 1893 Message: -- IC recieved data from LS --   2161728921488328804
CLK: 1894 Message: -- DE recieved data from IC --   2161728921488328804
CLK: 1894 Message: -- DE sends data to EX --   12800
CLK: 1895 Message: -- EX recieved data from DE --   12800
CLK: 1896 Message: -- IC sends ip to LS --   256
CLK: 1903 Message: -- LS recieved ip from IC --   256
CLK: 1903 Message: -- LS sends data to IC --    929998833545383184
CLK: 1906 Message: -- IC recieved data from LS --   929998833545383184
CLK: 1907 Message: -- DE recieved data from IC --   929998833545383184
CLK: 1907 Message: -- DE sends data to EX --   3344
CLK: 1910 Message: -- EX recieved data from DE --   3344
CLK: 1911 Message: -- IC sends ip to LS --   260
CLK: 1920 Message: -- LS recieved ip from IC --   260
CLK: 1920 Message: -- LS sends data to IC --    929998833545383184
CLK: 1920 Message: -- IC recieved data from LS --   929998833545383184
CLK: 1921 Message: -- DE recieved data from IC --   929998833545383184
CLK: 1921 Message: -- DE sends data to EX --   1283
CLK: 1925 Message: -- EX recieved data from DE --   1283
CLK: 1927 Message: -- IC sends ip to LS --   262
CLK: 1944 Message: -- LS recieved ip from IC --   262
CLK: 1944 Message: -- LS sends data to IC --    929998833545383184
CLK: 1947 Message: -- IC recieved data from LS --   929998833545383184
CLK: 1948 Message: -- DE recieved data from IC --   929998833545383184
CLK: 1948 Message: -- DE sends data to EX --   3304
CLK: 1950 Message: -- EX recieved data from DE --   3304
CLK: 1950 Message: -- IC sends ip to LS --   264
CLK: 1956 Message: -- LS recieved ip from IC --   264
CLK: 1956 Message: -- LS sends data to IC --    572914278010034
CLK: 1957 Message: -- IC recieved data from LS --   572914278010034
CLK: 1958 Message: -- DE recieved data from IC --   572914278010034
CLK: 1958 Message: -- DE sends data to EX --   3250
CLK: 1960 Message: -- EX recieved data from DE --   3250
CLK: 1962 Message: -- IC sends ip to LS --   268
CLK: 1962 Message: -- LS recieved ip from IC --   268
CLK: 1962 Message: -- LS sends data to IC --    572914278010034
CLK: 1962 Message: -- IC recieved data from LS --   572914278010034
CLK: 1963 Message: -- DE recieved data from IC --   572914278010034
CLK: 1963 Message: -- DE sends data to EX --   2320
CLK: 1965 Message: -- EX recieved data from DE --   2320
CLK: 1966 Message: -- IC sends ip to LS --   272
CLK: 1968 Message: -- LS recieved ip from IC --   272
CLK: 1968 Message: -- LS sends data to IC --    3314676426988850386
CLK: 1971 Message: -- IC recieved data from LS --   3314676426988850386
CLK: 1972 Message: -- DE recieved data from IC --   3314676426988850386
CLK: 1972 Message: -- DE sends data to EX --   3282
CLK: 1975 Message: -- EX recieved data from DE --   3282
CLK: 1977 Message: -- IC sends ip to LS --   276
CLK: 1987 Message: -- LS recieved ip from IC --   276
CLK: 1987 Message: -- LS sends data to IC --    3314676426988850386
CLK: 1990 Message: -- IC recieved data from LS --   3314676426988850386
CLK: 1991 Message: -- DE recieved data from IC --   3314676426988850386
CLK: 1991 Message: -- DE sends data to EX --   6310
CLK: 1995 Message: -- EX recieved data from DE --   6310
CLK: 1998 Message: -- IC sends ip to LS --   278
CLK: 2017 Message: -- LS recieved ip from IC --   278
CLK: 2017 Message: -- LS sends data to IC --    3314676426988850386
CLK: 2019 Message: -- IC recieved data from LS --   3314676426988850386
CLK: 2020 Message: -- DE recieved data from IC --   3314676426988850386
CLK: 2022 Message: -- IC sends NEW ip to LS --  280
CLK: 2022 Message: -- LS recieved ip from IC --   278
CLK: 2023 Message: -- LS sends data to IC --    18446482390445460144
CLK: 2026 Message: -- IC recieved data from LS --   18446482390445460144
CLK: 2026 Message: -- DE sends data to EX --   11776
CLK: 2030 Message: -- EX recieved data from DE --   11776
CLK: 2031 Message: -- IC sends ip to LS --   282
CLK: 2034 Message: -- LS recieved ip from IC --   282
CLK: 2034 Message: -- LS sends data to IC --    18446482390445460144
CLK: 2035 Message: -- IC recieved data from LS --   18446482390445460144
CLK: 2036 Message: -- DE recieved data from IC --   18446482390445460144
CLK: 2036 Message: -- DE sends data to EX --   7680
CLK: 2040 Message: -- EX recieved data from DE --   7680
CLK: 2043 Message: -- IC sends ip to LS --   4608
CLK: 2052 Message: -- LS recieved ip from IC --   4608
CLK: 2052 Message: -- LS sends data to IC --    648573321922807888
CLK: 2052 Message: -- IC recieved data from LS --   648573321922807888
CLK: 2053 Message: -- DE recieved data from IC --   648573321922807888
CLK: 2053 Message: -- DE sends data to EX --   2128
CLK: 2055 Message: -- EX recieved data from DE --   2128
CLK: 2056 Message: -- IC sends ip to LS --   4612
CLK: 2082 Message: -- LS recieved ip from IC --   4612
CLK: 2082 Message: -- LS sends data to IC --    648573321922807888
CLK: 2085 Message: -- IC recieved data from LS --   648573321922807888
CLK: 2086 Message: -- DE recieved data from IC --   648573321922807888
CLK: 2086 Message: -- DE sends data to EX --   12800
CLK: 2090 Message: -- EX recieved data from DE --   12800
CLK: 2092 Message: -- IC sends ip to LS --   4616
CLK: 2100 Message: -- LS recieved ip from IC --   4616
CLK: 2100 Message: -- LS sends data to IC --    18446744069481700864
CLK: 2103 Message: -- IC recieved data from LS --   18446744069481700864
CLK: 2104 Message: -- DE recieved data from IC --   18446744069481700864
CLK: 2104 Message: -- DE sends data to EX --   7680
CLK: 2105 Message: -- EX recieved data from DE --   7680
CLK: 2106 Message: -- IC sends ip to LS --   1024
CLK: 2130 Message: -- LS recieved ip from IC --   1024
CLK: 2130 Message: -- LS sends data to IC --    2161728921488328804
CLK: 2131 Message: -- IC recieved data from LS --   2161728921488328804
CLK: 2132 Message: -- DE recieved data from IC --   2161728921488328804
CLK: 2132 Message: -- DE sends data to EX --   2148
CLK: 2135 Message: -- EX recieved data from DE --   2148
CLK: 2136 Message: -- IC sends ip to LS --   1026
CLK: 2137 Message: -- LS recieved ip from IC --   1026
CLK: 2137 Message: -- LS sends data to IC --    2161728921488328804
CLK: 2139 Message: -- IC recieved data from LS --   2161728921488328804
CLK: 2140 Message: -- DE recieved data from IC --   2161728921488328804
CLK: 2140 Message: -- DE sends data to EX --   12800
CLK: 2145 Message: -- EX recieved data from DE --   12800
CLK: 2145 Message: -- IC sends ip to LS --   256
CLK: 2166 Message: -- LS recieved ip from IC --   256
CLK: 2166 Message: -- LS sends data to IC --    929998833545383184
CLK: 2167 Message: -- IC recieved data from LS --   929998833545383184
CLK: 2168 Message: -- DE recieved data from IC --   929998833545383184
CLK: 2168 Message: -- DE sends data to EX --   3344
CLK: 2170 Message: -- EX recieved data from DE --   3344
CLK: 2172 Message: -- IC sends ip to LS --   260
CLK: 2172 Message: -- LS recieved ip from IC --   260
CLK: 2172 Message: -- LS sends data to IC --    929998833545383184
CLK: 2172 Message: -- IC recieved data from LS --   929998833545383184
CLK: 2173 Message: -- DE recieved data from IC --   929998833545383184
CLK: 2173 Message: -- DE sends data to EX --   1283
CLK: 2175 Message: -- EX recieved data from DE --   1283
CLK: 2176 Message: -- IC sends ip to LS --   262
CLK: 2184 Message: -- LS recieved ip from IC --   262
CLK: 2184 Message: -- LS sends data to IC --    929998833545383184
CLK: 2187 Message: -- IC recieved data from LS --   929998833545383184
CLK: 2188 Message: -- DE recieved data from IC --   929998833545383184
CLK: 2188 Message: -- DE sends data to EX --   3304
CLK: 2190 Message: -- EX recieved data from DE --   3304
CLK: 2190 Message: -- LS recieved ip from IC --   264
CLK: 2190 Message: -- IC sends ip to LS --   264
CLK: 2190 Message: -- LS sends data to IC --    572914278010034
CLK: 2193 Message: -- IC recieved data from LS --   572914278010034
CLK: 2195 Message: -- DE recieved data from IC --   572914278010034
CLK: 2195 Message: -- DE sends data to EX --   3250
CLK: 2200 Message: -- EX recieved data from DE --   3250
CLK: 2202 Message: -- IC sends ip to LS --   268
CLK: 2209 Message: -- LS recieved ip from IC --   268
CLK: 2209 Message: -- LS sends data to IC --    572914278010034
CLK: 2211 Message: -- IC recieved data from LS --   572914278010034
CLK: 2212 Message: -- DE recieved data from IC --   572914278010034
CLK: 2212 Message: -- DE sends data to EX --   2320
CLK: 2215 Message: -- EX recieved data from DE --   2320
CLK: 2217 Message: -- IC sends ip to LS --   272
CLK: 2238 Message: -- LS recieved ip from IC --   272
CLK: 2238 Message: -- LS sends data to IC --    3314676426988850386
CLK: 2239 Message: -- IC recieved data from LS --   3314676426988850386
CLK: 2240 Message: -- DE recieved data from IC --   3314676426988850386
CLK: 2240 Message: -- DE sends data to EX --   3282
CLK: 2241 Message: -- EX recieved data from DE --   3282
CLK: 2244 Message: -- IC sends ip to LS --   276
CLK: 2244 Message: -- LS recieved ip from IC --   276
CLK: 2244 Message: -- LS sends data to IC --    3314676426988850386
CLK: 2247 Message: -- IC recieved data from LS --   3314676426988850386
CLK: 2248 Message: -- DE recieved data from IC --   3314676426988850386
CLK: 2248 Message: -- DE sends data to EX --   6310
CLK: 2250 Message: -- EX recieved data from DE --   6310
CLK: 2250 Message: -- IC sends ip to LS --   278
CLK: 2250 Message: -- LS recieved ip from IC --   278
CLK: 2251 Message: -- LS sends data to IC --    3314676426988850386
CLK: 2251 Message: -- IC recieved data from LS --   3314676426988850386
CLK: 2252 Message: -- DE recieved data from IC --   3314676426988850386
CLK: 2256 Message: -- IC sends NEW ip to LS --  280
CLK: 2256 Message: -- LS recieved ip from IC --   278
CLK: 2256 Message: -- LS sends data to IC --    18446482390445460144
CLK: 2259 Message: -- IC recieved data from LS --   18446482390445460144
CLK: 2260 Message: -- DE sends data to EX --   11776
CLK: 2260 Message: -- EX recieved data from DE --   11776
CLK: 2262 Message: -- IC sends ip to LS --   282
CLK: 2268 Message: -- LS recieved ip from IC --   282
CLK: 2268 Message: -- LS sends data to IC --    18446482390445460144
CLK: 2271 Message: -- IC recieved data from LS --   18446482390445460144
CLK: 2272 Message: -- DE recieved data from IC --   18446482390445460144
CLK: 2272 Message: -- DE sends data to EX --   7680
CLK: 2275 Message: -- EX recieved data from DE --   7680
CLK: 2277 Message: -- IC sends ip to LS --   4608
CLK: 2280 Message: -- LS recieved ip from IC --   4608
CLK: 2280 Message: -- LS sends data to IC --    648573321922807888
CLK: 2280 Message: -- IC recieved data from LS --   648573321922807888
CLK: 2281 Message: -- DE recieved data from IC --   648573321922807888
CLK: 2281 Message: -- DE sends data to EX --   2128
CLK: 2285 Message: -- EX recieved data from DE --   2128
CLK: 2286 Message: -- IC sends ip to LS --   4612
CLK: 2287 Message: -- LS recieved ip from IC --   4612
CLK: 2287 Message: -- LS sends data to IC --    648573321922807888
CLK: 2292 Message: -- IC recieved data from LS --   648573321922807888
CLK: 2293 Message: -- DE recieved data from IC --   648573321922807888
CLK: 2293 Message: -- DE sends data to EX --   12800
CLK: 2295 Message: -- EX recieved data from DE --   12800
CLK: 2295 Message: -- IC sends ip to LS --   4616
CLK: 2298 Message: -- LS recieved ip from IC --   4616
CLK: 2298 Message: -- LS sends data to IC --    18446744069481700864
CLK: 2299 Message: -- IC recieved data from LS --   18446744069481700864
CLK: 2300 Message: -- DE recieved data from IC --   18446744069481700864
CLK: 2300 Message: -- DE sends data to EX --   7680
CLK: 2305 Message: -- EX recieved data from DE --   7680
CLK: 2307 Message: -- IC sends ip to LS --   1024
CLK: 2329 Message: -- LS recieved ip from IC --   1024
CLK: 2329 Message: -- LS sends data to IC --    2161728921488328804
CLK: 2331 Message: -- IC recieved data from LS --   2161728921488328804
CLK: 2332 Message: -- DE recieved data from IC --   2161728921488328804
CLK: 2332 Message: -- DE sends data to EX --   2148
CLK: 2335 Message: -- EX recieved data from DE --   2148
CLK: 2337 Message: -- IC sends ip to LS --   1026
CLK: 2341 Message: -- LS recieved ip from IC --   1026
CLK: 2341 Message: -- LS sends data to IC --    2161728921488328804
CLK: 2343 Message: -- IC recieved data from LS --   2161728921488328804
CLK: 2344 Message: -- DE recieved data from IC --   2161728921488328804
CLK: 2344 Message: -- DE sends data to EX --   12800
CLK: 2345 Message: -- EX recieved data from DE --   12800
CLK: 2347 Message: -- IC sends ip to LS --   256
CLK: 2347 Message: -- LS recieved ip from IC --   256
CLK: 2347 Message: -- LS sends data to IC --    929998833545383184
CLK: 2347 Message: -- IC recieved data from LS --   929998833545383184
CLK: 2348 Message: -- DE recieved data from IC --   929998833545383184
CLK: 2348 Message: -- DE sends data to EX --   3344
CLK: 2350 Message: -- EX recieved data from DE --   3344
CLK: 2352 Message: -- LS recieved ip from IC --   260
CLK: 2352 Message: -- IC sends ip to LS --   260
CLK: 2353 Message: -- LS sends data to IC --    929998833545383184
CLK: 2356 Message: -- IC recieved data from LS --   929998833545383184
CLK: 2358 Message: -- DE recieved data from IC --   929998833545383184
CLK: 2358 Message: -- DE sends data to EX --   1283
CLK: 2360 Message: -- EX recieved data from DE --   1283
CLK: 2361 Message: -- IC sends ip to LS --   262
CLK: 2371 Message: -- LS recieved ip from IC --   262
CLK: 2371 Message: -- LS sends data to IC --    929998833545383184
CLK: 2373 Message: -- IC recieved data from LS --   929998833545383184
CLK: 2374 Message: -- DE recieved data from IC --   929998833545383184
CLK: 2374 Message: -- DE sends data to EX --   3304
CLK: 2375 Message: -- EX recieved data from DE --   3304
CLK: 2377 Message: -- IC sends ip to LS --   264
CLK: 2377 Message: -- LS recieved ip from IC --   264
CLK: 2377 Message: -- LS sends data to IC --    572914278010034
CLK: 2382 Message: -- IC recieved data from LS --   572914278010034
CLK: 2383 Message: -- DE recieved data from IC --   572914278010034
CLK: 2383 Message: -- DE sends data to EX --   3250
CLK: 2385 Message: -- EX recieved data from DE --   3250
CLK: 2385 Message: -- IC sends ip to LS --   268
